;Format
;Basic value type
; str, dex_app, dex_skill, con, wis, int, cha, size, weapon
; VALx == 100000 - no change internal value

str
;Value ToHit ToDam CarryWeight WieldWeight HeldWeight
0		-5	-4	0	0	0
1		-5	-4	3	1	0
2		-3	-2	3	2	1
3		-3	-1	10	3	1
4		-2	-1	25	4	2
5		-2	-1	55	5	2
6		-1	0	80	6	3
7		-1	0	90	7	3
8		0	0	100	8	4
9		0	0	100	9	4
10		0	0	115	10	5
11		0	0	115	11	5
12		0	0	140	12	6
13		0	0	140	13	6
14		0	0	170	14	7
15		0	1	170	15	7
16		1	2	195	16	8
17		1	3	220	17	8
18		1	4	255	18	9
19		1	5	640	19	9
20		2	6	700	20	10
21		2	7	810	20	11
22		2	8	970	21	11
23		2	9	1130	21	12
24		3	10	1440	22	12
25		3	11	1500	22	13
26		3	12	1550	23	13
27		4	13	1600	23	14
28		4	14	1650	24	14
29		4	15	1700	24	15
30		4	16	1750	25	15
31		4	17	1800	25	15
32		5	18	1820	25	15
33		5	19	1840	25	16
34		5	20	1860	26	16
35		5	21	1880	26	16
36		6	22	1900	26	17
37		6	23	1920	26	17
38		6	24	1940	27	17
39		6	25	1960	27	17
40		7	26	1980	27	18
41		7	27	2000	27	18
42		7	28	2020	28	18
43		7	29	2040	28	18
44		8	30	2060	28	19
45		8	31	2080	28	19
46		8	32	2090	29	19
47		8	33	2100	29	19
48		9	34	2130	29	19
49		9	35	2150	29	20
50		9	36	2200	30	20

dex_app
;Value Reaction MissAttack Defensive
0		-10	-7	8
1		-9	-6	7
2		-8	-4	6
3		-7	-3	4
4		-6	-2	3
5		-5	-2	2
6		-4	-2	2
7		-3	-1	1
8		-2	-1	1
9		-1	-1	0
10		0	0	0
11		1	0	0
12		2	0	0
13		3	0	-1
14		4	0	-1
15		5	0	-1
16		6	1	-1
17		7	2	-2
18		8	3	-3
19		9	4	-4
20		10	5	-5
21		11	6	-6
22		12	7	-7
23		13	8	-8
24		14	9	-9
25		15	10	-10
26		16	11	-11
27		17	12	-12
28		18	13	-13
29		19	14	-14
30		20	15	-15
31		21	16	-16
32		22	17	-17
33		23	18	-18
34		24	19	-19
35		25	20	-20
36		27	21	-21
37		29	22	-22
38		31	23	-23
39		33	24	-24
40		35	25	-25
41		37	26	-26
42		39	27	-27
43		41	28	-28
44		43	29	-29
45		45	30	-30
46		47	31	-31
47		49	32	-32
48		51	33	-33
49		53	34	-34
50		55	35	-35

con
;Value Hitp Ressurection AffectSaving PoisonSaving CriticSaving
0	-4	100	4	5	4
1	-3	100	4	5	4
2	-3	98	3	5	4
3	-3	96	3	5	3
4	-3	94	3	4	3
5	-3	92	2	4	3
6	-2	90	2	3	2
7	-2	88	2	3	2
8	-2	86	1	2	2
9	-2	84	1	2	1
10	-2	82	0	1	1
11	-1	80	-1	1	1
12	-1	78	-2	1	0
13	-1	76	-3	0	0
14	-1	74	-4	0	0
15	1	72	-5	0	-1
16	1	70	-6	0	-1
17	1	67	-7	-1	-2
18	2	64	-8	-1	-2
19	2	60	-9	-2	-3
20	3	57	-10	-3	-3
21	3	53	-11	-3	-4
22	4	50	-12	-4	-5
23	4	48	-13	-4	-6
24	4	46	-14	-5	-7
25	5	45	-15	-5	-8
26	6	45	-16	-6	-9
27	7	44	-17	-7	-10
28	8	44	-18	-8	-11
29	9	43	-19	-9	-12
30	10	43	-20	-10	-13
31	11	42	-21	-11	-14
32	12	42	-22	-12	-15
33	13	41	-23	-13	-16
34	14	41	-24	-14	-17
35	15	40	-25	-15	-18
36	16	39	-27	-16	-20
37	17	39	-29	-17	-22
38	18	38	-31	-18	-24
39	19	38	-33	-19	-26
40	20	37	-35	-20	-28
41	21	37	-37	-21	-30
42	22	36	-39	-22	-32
43	23	36	-41	-23	-34
44	24	35	-43	-24	-36
45	25	35	-45	-25	-38
46	26	34	-47	-26	-40
47	27	33	-49	-27	-42
48	28	32	-51	-28	-44
49	29	31	-53	-29	-46
50	30	30	-55	-30	-48

wis
;Value SpellAdditional(bitv) MaxLearnSkill20level SpellSuccess CharSavings MaxSkills
1       100000  20      -80     3       1
2       100000  24      -78     3       2
3       100000  28      -77     3       3
4       100000  32      -76     3       4
5       100000  36      -75     2       5
6       100000  40      -74     2       6
7       100000  45      -73     2       7
8       100000  50      -72     1       8
9       100000  55      -71     1       9
10      100000  60      -70     1       10
11      100000  62      -67     0       11
12      100000  64      -64     0       12
13      100000  66      -60     0       13
14      100000  68      -55     0       14
15      100000  70      -48     0       15
16      100000  73      -40     -1      15
17      100000  76      -29     -2      16
18      100000  79      -18     -3      16
19      100000  82      -14     -4      17
20      100000  85      -8      -5      17
21      100000  88      -4      -6      18
22      100000  91      -1      -7      18
23      100000  94      1       -8      19
24      100000  97      3       -9      19
25      100000  100     7       -10     20
26      100000  103     9       -11     21
27      100000  106     13      -12     22
28      100000  109     16      -13     23
29      100000  112     21      -14     24
30      100000  115     24      -15     25
31      100000  118     29      -16     25
32      100000  121     31      -17     26
33      100000  124     35      -18     26
34      100000  127     38      -19     27
35      100000  130     43      -20     27
36      100000  133     45      -22     28
37      100000  136     49      -24     28
38      100000  139     52      -26     29
39      100000  142     56      -28     29
40      100000  145     59      -30     30
41      100000  148     63      -32     30
42      100000  151     66      -34     31
43      100000  154     70      -36     31
44      100000  157     73      -38     32
45      100000  160     77      -40     32
46      100000  163     81      -42     33
47      100000  166     85      -44     33
48      100000  169     90      -46     34
49      100000  172     95      -48     34
50      100000  175     100     -50     35

cha
;Value Leadership Charms Morale Illusive Dam_to_hit_rate
0		-6	10	0	-6	26
1		-6	50	0	-6      26
2		-6	80	0	-6      26
3		-6	100	0	-5      26
4		-5	150	0	-5      26
5		-4	200	0	-4      26
6		-3	250	0	-4      26
7		-2	300	0	-4      26
8		-1	400	1	-3      26
9		0	500	2	-3      26
10		0	600	3	-2      26
11		1	800	4	-1      26
12		2	1000	5	0       25
13		3	1200	6	1       24
14		4	1400	7	3       23
15		5	1600	8	4       22
16		6	1875	9	5       21
17		7	2100	10	6       20
18		8	2400	11	7       20
19		9	2780	12	9       19
20		10	3230	13	10      19
21		11	3620	14	11      18
22		12	3940	15	12      18
23		13	4210	16	13      17
24		14	4440	17	14      17
25		15	4778	18	15      17
26		16	5071	19	16      17
27		17	5334	20	17      17
28		18	5587	21	18      17
29		19	5830	22	19      17
30		20	6063	23	20      17
31		21	6286	24	21      17
32		22	6499	25	22      17
33		23	6702	26	23      17
34		24	6895	27	24      17
35		25	7088	28	25      17
36		26	7281	29	26      17
37		27	7474	30	27      17
38		28	7667	31	28      17
39		29	7860	32	29      16
40		30	8053	33	30      16
41		31	8246	34	31      16
42		32	8439	35	32      16
43		33	8632	36	33      16
44		34	8825	37	34      16
45		35	9018	38	35      16
46		36	9211	39	36      15
47		37	9404	40	37      14
48		38	9597	41	38      13
49		39	9790	42	39      12
50		40	9983	43	40      11



weapon
;Value Shocking Bashing
0		1	0	-10
1		1	0	-10
2		1	0	-8
3		2	0	-6
4		2	0	-4
5		3	1	-2
6		3	2	0
7		4	3	2
8		4	4	4
9		5	5	6
10		5	6	8
11		5	7	10
12		6	8	11
13		6	9	12
14		7	10	13
15		7	11	15
16		8	12	16
17		8	13	17
18		9	14	18
19		9	15	19
20		10	15	20
21		11	16	21
22		12	17	22
23		13	18	23
24		14	19	24
25		15	20	25
26		16	21	26
27		17	22	27
28		18	23	28
29		19	24	29
30		20	25	30
31		22	26	31
32		24	27	32
33		26	28	33
34		28	29	34
35		30	30	35
36		32	31	36
37		34	32	37
38		36	33	38
39		38	34	39
40		40	35	40
41		41	36	41
42		42	37	42
43		43	38	43
44		44	39	44
45		45	40	45
46		46	41	46
47		47	42	47
48		48	43	48
49		49	44	49
50		50	45	50

dex_skill
;Value PPocket PLocks Traps Sneak Hide
0		-99	-99	-5	-99	-60
1		-90	-90	-5	-90	-50
2		-80	-80	-4	-80	-45
3		-70	-70	-4	-70	-40
4		-60	-60	-3	-60	-35
5		-50	-50	-3	-50	-30
6		-40	-40	-2	-40	-25
7		-30	-30	-3	-30	-20
8		-20	-20	-1	-20	-15
9		-15	-10	-1	-20	-10
10		-10	-5	0	-15	-7
11		-5	-4	1	-10	-5
12		-4	-2	2	-5	-3
13		-2	0	3	-3	-1
14		0	2	4	-1	0
15		2	4	5	0	2
16		3	6	6	1	3
17		5	8	7	3	5
18		10	10	8	5	7
19		15	13	9	7	9
20		16	15	10	8	11
21		17	20	11	10	13
22		18	21	12	12	15
23		19	22	13	14	17
24		20	23	14	15	19
25		21	24	15	16	20
26		22	25	16	18	21
27		23	26	17	20	22
28		24	27	18	22	23
29		24	29	19	23	24
30		25	30	20	25	25
31		26	32	21	26	26
32		27	32	22	27	27
33		28	33	23	28	28
34		29	34	24	29	29
35		29	35	25	30	30
36		30	36	26	31	31
37		30	37	27	32	32
38		31	38	28	33	33
39		31	39	29	34	34
40		32	40	30	35	35
41		32	41	31	36	36
42		33	42	32	37	37
43		34	43	33	38	38
44		35	44	34	39	39
45		36	45	35	40	40
46		37	46	36	41	41
47		38	47	37	42	42
48		39	48	38	43	43
49		40	49	39	44	44
50		40	50	40	45	45



int
;Value SpellAcknowledge ToSkilluse ManaPerTic Fails ImprooveSkill Observation
0		10	-10	10   34 	  0	  -5
1		10	-9	10   38 	  1	  -5
2		10	-8	10   42 	  1	  -5
3		14	-7	10   46 	  2	  -4
4		18	-6	15   50 	  2	  -4
5		22	-5	20   52 	  3	  -3
6		26	-4	25   54 	  3	  -2
7		30	-3	30   56 	  4	  -2
8		34	-2	40   58 	  4	  -1
9		38	-1	50   60 	  5	  -1
10		42	0	60   140 	  5	  0
11		46	1	63   160 	  6	  0
12		50	2	66   180 	  7	  0
13		53	3	69   200 	  8	  0
14		57	4	72   220 	  9	  0
15		60	5	75   240 	  10	  1
16		64	6	78   260 	  11	  2
17		68	7	81   280 	  12	  3
18		72	8	84   300 	  13	  4
19		76	9	87   320 	  14	  5
20		80	10	90   340 	  15	  6
21		82	11	92   360 	  16	  7
22		84	12	94   380 	  17	  8
23		86	13	96   400 	  18	  9
24		88	14	98   420 	  19	  9
25		90	15	100  440 	  20	  10
26		91	16	105  460 	  21	  11
27		92	17	110  480 	  22	  12
28		93	18	115  500 	  23	  13
29		94	19	120  520	  24	  14
30		95	20	130  540	  25	  15
31		95	21	135  560	  26	  16
32		95	22	140  580	  27	  17
33		95	23	145  600	  28	  18
34		95	24	150  620	  29	  19
35		96	25	150  640	  30	  20
36		96	26	155  660	  31	  21
37		96	27	155  680 	  32	  22
38		96	28	160  700 	  33	  23
39		96	29	160  720 	  34	  24
40		97	30	165  740 	  35	  25
41		97	31	165  760 	  36	  26
42		97	32	170  780 	  37	  27
43		97	33	170  800	  38	  28
44		97	34	175  820	  39	  29
45		98	35	175  840	  40	  30
46		98	36	180  860	  41	  31
47		98	37	180  880	  42	  32
48		99	38	190  900	  43	  33
49		99	39	190  920	  44	  34
50		100	40	200  940	  45	  35
};


size
;ToAC Interpolate Initiative Shocking
0		-5	10	5	1
1		-5	10	5	1
2		-5	10	5	1
3		-5	9	4	1
4		-5	9	4	2
5		-5	8	4	2
6		-4	8	4	2
7		-4	7	4	2
8		-4	7	3	2
9		-4	7	3	3
10		-3	6	3	3
11		-3	6	3	3
12		-3	6	3	3
13		-3	5	2	4
14		-2	5	2	4
15		-2	4	2	4
16		-2	4	2	4
17		-2	4	2	5
18		-1	3	1	5
19		-1	3	1	6
20		-1	2	1	6
21		0	2	1	7
22		0	1	1	7
23		0	1	0	8
24		0	0	0	9
25		0	0	0	9
26		0	0	0	10
27		0	-1	0	11
28		0	-1	-1	11
29		0	-1	-1	12
30		0	-2	-1	12
31		1	-2	-1	13
32		1	-2	-1	13
33		1	-3	-2	14
34		1	-3	-2	14
35		1	-4	-2	15
36		2	-4	-2	16
37		2	-5	-2	17
38		2	-5	-3	18
39		2	-5	-3	19
40		3	-6	-3	20
41		3	-6	-3	21
42		3	-7	-3	22
43		3	-7	-4	23
44		3	-7	-4	24
45		4	-8	-4	25
46		4	-8	-4	26
47		4	-9	-4	27
48		5	-9	-5	28
49		5	-10	-5	29
50		5	-10	-5	30


